…
    # ── Step 5: numerical differences ─────────────────────────────────────────────
    agg_comparison %>%
      mutate(
        diff_payroll  = payroll_computed  - payroll_aggregate,
        diff_pct_wins = pct_wins_computed - pct_wins_aggregate
      ) %>%
      select(team, diff_payroll, diff_pct_wins) %>%
      arrange(desc(abs(diff_payroll)))

    ## # A tibble: 30 × 3
    ##    team                  diff_payroll diff_pct_wins
    ##    <fct>                        <dbl>         <dbl>
    ##  1 New York Yankees             2854.      0.00791 
    ##  2 Boston Red Sox               2102.      0.00257 
    ##  3 Los Angeles Dodgers          1872.     -0.00471 
    ##  4 New York Mets                1717.      0.00898 
    ##  5 Philadelphia Phillies        1688.     -0.00688 
    ##  6 Los Angeles Angels           1659.     -0.00834 
    ##  7 Chicago Cubs                 1550.      0.000934
    ##  8 Atlanta Braves               1517.      0.0104  
    ##  9 San Francisco Giants         1510.      0.000750
    ## 10 Detroit Tigers               1483.     -0.00837 
    ## # ℹ 20 more rows
…
